1.Create a script that asks the user to enter two numbers like this - 
Enter the first number: 
Enter the second number:
Now display - sum, difference, multiplication and division results of provided numbers

#!/bin/bash


read -p "Enter number1: " n1
read -p "Enter number2: " n2

summ=$((n1+n2))
sub=$((n1-n2))
mul=$((n1*n2))
div=$((n1/n2))

echo "sum is : "$summ
echo "Substractio is: "$sub
echo "Multiplication is: "$mul
echo "Division is: "$div
-------------------------------------------

2.Create a script that asks user to enter two numbers like this:= -
Enter the first number: 
Enter the second number:
Now display which number is greater?

#!/bin/bash

read -p "Enter first numbers: " n1
read -p "Enter second numbers: " n2
read -p "Enter third numbers: " n3

if [ $n1 -gt $n2 ] && [ $n1 -gt $n3 ]

then

echo $n1 "is the greatest"

elif [ $n2 -gt $n1 ] && [ $n2 -gt $n3 ]

then

echo $n2 "is the greatest"

else

echo $n3 "is the greatest"

fi
---------------------------------------------

3.Create a script that ask a number from user and check if it is even or odd
#!/bin/bash

read -p "Enter the number: " num

if [ $num%2==0 ]
then
echo $num "is even"
else
echo $num "is odd"
fi
----------------------------------------------------------------------------------------------------------

4.Create a script that asks for username and display its home directory only if it's user id is greater than 1000 and less than 1003

#!/bin/bash

read -p "enter username: " user

cat /etc/passwd | grep -w "^$user" | awk -F':' '{ if(($3 -gt 1000) -a (($3 -lt 1003)) {print $1,$3}'

-----------------------------------------------------------------------------------------------------------

5.Create a script that asks for a random number from the user.
Check if that number matches any UID in the Linux machine.
If it does, display the username and it's shell
If it doesn't then increment that number by 10 and display the incremented number

#!/bin/bash

read -p "Enter any random number: " num

uid=$(cat /etc/passwd | grep "$uid" | awk -F':' -v n=$num  '{ if($3 == n) print $1,$7 }')


if [ -n "$uid" ]
then
echo $uid
else
echo "$((num+10))"
fi
-------------------------------------------------------------------------------------------------------------
